adcBuffer[0]	uint16_t	838	
adcBuffer[1]	uint16_t	924	
adcBuffer[2]	uint16_t	1035	
adcBuffer[3]	uint16_t	1152	
adcBuffer[4]	uint16_t	1291	
adcBuffer[5]	uint16_t	1435	
adcBuffer[6]	uint16_t	1614	
adcBuffer[7]	uint16_t	1761	
adcBuffer[8]	uint16_t	1947	
adcBuffer[9]	uint16_t	2102	
adcBuffer[10]	uint16_t	2288	
adcBuffer[11]	uint16_t	2458	
adcBuffer[12]	uint16_t	2627	
adcBuffer[13]	uint16_t	2787	
adcBuffer[14]	uint16_t	2943	
adcBuffer[15]	uint16_t	3063	
adcBuffer[16]	uint16_t	3205	
adcBuffer[17]	uint16_t	3301	
adcBuffer[18]	uint16_t	3358	
adcBuffer[19]	uint16_t	3412	
adcBuffer[20]	uint16_t	3456	
adcBuffer[21]	uint16_t	3481	
adcBuffer[22]	uint16_t	3492	
adcBuffer[23]	uint16_t	3472	
adcBuffer[24]	uint16_t	3421	
adcBuffer[25]	uint16_t	3342	
adcBuffer[26]	uint16_t	3259	
adcBuffer[27]	uint16_t	3159	
adcBuffer[28]	uint16_t	3032	
adcBuffer[29]	uint16_t	2890	
adcBuffer[30]	uint16_t	2745	
adcBuffer[31]	uint16_t	2584	
adcBuffer[32]	uint16_t	2411	
adcBuffer[33]	uint16_t	2229	
adcBuffer[34]	uint16_t	2068	
adcBuffer[35]	uint16_t	1869	
adcBuffer[36]	uint16_t	1692	
adcBuffer[37]	uint16_t	1555	
adcBuffer[38]	uint16_t	1400	
adcBuffer[39]	uint16_t	1238	
adcBuffer[40]	uint16_t	1105	
adcBuffer[41]	uint16_t	1003	
adcBuffer[42]	uint16_t	891	
adcBuffer[43]	uint16_t	793	
adcBuffer[44]	uint16_t	739	
adcBuffer[45]	uint16_t	701	
adcBuffer[46]	uint16_t	682	
adcBuffer[47]	uint16_t	699	
adcBuffer[48]	uint16_t	724	
adcBuffer[49]	uint16_t	748	
adcBuffer[50]	uint16_t	844	
adcBuffer[51]	uint16_t	921	
adcBuffer[52]	uint16_t	1031	
adcBuffer[53]	uint16_t	1165	
adcBuffer[54]	uint16_t	1285	
adcBuffer[55]	uint16_t	1431	
adcBuffer[56]	uint16_t	1593	
adcBuffer[57]	uint16_t	1745	
adcBuffer[58]	uint16_t	1938	
adcBuffer[59]	uint16_t	2097	
adcBuffer[60]	uint16_t	2282	
adcBuffer[61]	uint16_t	2451	
adcBuffer[62]	uint16_t	2620	
adcBuffer[63]	uint16_t	2780	
adcBuffer[64]	uint16_t	2920	
adcBuffer[65]	uint16_t	3073	
adcBuffer[66]	uint16_t	3196	
adcBuffer[67]	uint16_t	3295	
adcBuffer[68]	uint16_t	3347	
adcBuffer[69]	uint16_t	3416	
adcBuffer[70]	uint16_t	3443	
adcBuffer[71]	uint16_t	3484	
adcBuffer[72]	uint16_t	3487	
adcBuffer[73]	uint16_t	3443	
adcBuffer[74]	uint16_t	3400	
adcBuffer[75]	uint16_t	3351	
adcBuffer[76]	uint16_t	3256	
adcBuffer[77]	uint16_t	3142	
adcBuffer[78]	uint16_t	3027	
adcBuffer[79]	uint16_t	2882	
adcBuffer[80]	uint16_t	2742	
adcBuffer[81]	uint16_t	2570	
adcBuffer[82]	uint16_t	2415	
adcBuffer[83]	uint16_t	2235	
adcBuffer[84]	uint16_t	2037	
adcBuffer[85]	uint16_t	1894	
adcBuffer[86]	uint16_t	1708	
adcBuffer[87]	uint16_t	1533	
adcBuffer[88]	uint16_t	1394	
adcBuffer[89]	uint16_t	1255	
adcBuffer[90]	uint16_t	1114	
adcBuffer[91]	uint16_t	1002	
adcBuffer[92]	uint16_t	887	
adcBuffer[93]	uint16_t	812	
adcBuffer[94]	uint16_t	747	
adcBuffer[95]	uint16_t	712	
adcBuffer[96]	uint16_t	697	
adcBuffer[97]	uint16_t	689	
adcBuffer[98]	uint16_t	705	
adcBuffer[99]	uint16_t	744	
adcBuffer[100]	uint16_t	831	
adcBuffer[101]	uint16_t	921	
adcBuffer[102]	uint16_t	1041	
adcBuffer[103]	uint16_t	1161	
adcBuffer[104]	uint16_t	1293	
adcBuffer[105]	uint16_t	1432	
adcBuffer[106]	uint16_t	1592	
adcBuffer[107]	uint16_t	1741	
adcBuffer[108]	uint16_t	1952	
adcBuffer[109]	uint16_t	2123	
adcBuffer[110]	uint16_t	2299	
adcBuffer[111]	uint16_t	2462	
adcBuffer[112]	uint16_t	2623	
adcBuffer[113]	uint16_t	2781	
adcBuffer[114]	uint16_t	2911	
adcBuffer[115]	uint16_t	3075	
adcBuffer[116]	uint16_t	3183	
adcBuffer[117]	uint16_t	3287	
adcBuffer[118]	uint16_t	3372	
adcBuffer[119]	uint16_t	3428	
adcBuffer[120]	uint16_t	3471	
adcBuffer[121]	uint16_t	3472	
adcBuffer[122]	uint16_t	3497	
adcBuffer[123]	uint16_t	3457	
adcBuffer[124]	uint16_t	3405	
adcBuffer[125]	uint16_t	3351	
adcBuffer[126]	uint16_t	3245	
adcBuffer[127]	uint16_t	3138	
adcBuffer[128]	uint16_t	3005	
adcBuffer[129]	uint16_t	2887	
adcBuffer[130]	uint16_t	2754	
adcBuffer[131]	uint16_t	2589	
adcBuffer[132]	uint16_t	2414	
adcBuffer[133]	uint16_t	2224	
adcBuffer[134]	uint16_t	2041	
adcBuffer[135]	uint16_t	1900	
adcBuffer[136]	uint16_t	1707	
adcBuffer[137]	uint16_t	1554	
adcBuffer[138]	uint16_t	1396	
adcBuffer[139]	uint16_t	1250	
adcBuffer[140]	uint16_t	1116	
adcBuffer[141]	uint16_t	1002	
adcBuffer[142]	uint16_t	882	
adcBuffer[143]	uint16_t	798	
adcBuffer[144]	uint16_t	750	
adcBuffer[145]	uint16_t	712	
adcBuffer[146]	uint16_t	678	
adcBuffer[147]	uint16_t	673	
adcBuffer[148]	uint16_t	716	
adcBuffer[149]	uint16_t	779	
adcBuffer[150]	uint16_t	840	
adcBuffer[151]	uint16_t	908	
adcBuffer[152]	uint16_t	1034	
adcBuffer[153]	uint16_t	1140	
adcBuffer[154]	uint16_t	1282	
adcBuffer[155]	uint16_t	1447	
adcBuffer[156]	uint16_t	1593	
adcBuffer[157]	uint16_t	1751	
adcBuffer[158]	uint16_t	1919	
adcBuffer[159]	uint16_t	2094	
adcBuffer[160]	uint16_t	2286	
adcBuffer[161]	uint16_t	2473	
adcBuffer[162]	uint16_t	2635	
adcBuffer[163]	uint16_t	2767	
adcBuffer[164]	uint16_t	2913	
adcBuffer[165]	uint16_t	3071	
adcBuffer[166]	uint16_t	3165	
adcBuffer[167]	uint16_t	3291	
adcBuffer[168]	uint16_t	3373	
adcBuffer[169]	uint16_t	3436	
adcBuffer[170]	uint16_t	3452	
adcBuffer[171]	uint16_t	3471	
adcBuffer[172]	uint16_t	3476	
adcBuffer[173]	uint16_t	3442	
adcBuffer[174]	uint16_t	3407	
adcBuffer[175]	uint16_t	3348	
adcBuffer[176]	uint16_t	3243	
adcBuffer[177]	uint16_t	3147	
adcBuffer[178]	uint16_t	3038	
adcBuffer[179]	uint16_t	2882	
adcBuffer[180]	uint16_t	2717	
adcBuffer[181]	uint16_t	2578	
adcBuffer[182]	uint16_t	2416	
adcBuffer[183]	uint16_t	2248	
adcBuffer[184]	uint16_t	2051	
adcBuffer[185]	uint16_t	1869	
adcBuffer[186]	uint16_t	1695	
adcBuffer[187]	uint16_t	1549	
adcBuffer[188]	uint16_t	1385	
adcBuffer[189]	uint16_t	1247	
adcBuffer[190]	uint16_t	1118	
adcBuffer[191]	uint16_t	993	
adcBuffer[192]	uint16_t	871	
adcBuffer[193]	uint16_t	800	
adcBuffer[194]	uint16_t	748	
adcBuffer[195]	uint16_t	690	
adcBuffer[196]	uint16_t	685	
adcBuffer[197]	uint16_t	972	
adcBuffer[198]	uint16_t	879	
adcBuffer[199]	uint16_t	821	
adcBuffer[200]	uint16_t	754	
adcBuffer[201]	uint16_t	701	
adcBuffer[202]	uint16_t	680	
adcBuffer[203]	uint16_t	689	
adcBuffer[204]	uint16_t	702	
adcBuffer[205]	uint16_t	773	
adcBuffer[206]	uint16_t	834	
adcBuffer[207]	uint16_t	930	
adcBuffer[208]	uint16_t	1025	
adcBuffer[209]	uint16_t	1132	
adcBuffer[210]	uint16_t	1271	
adcBuffer[211]	uint16_t	1454	
adcBuffer[212]	uint16_t	1582	
adcBuffer[213]	uint16_t	1741	
adcBuffer[214]	uint16_t	1945	
adcBuffer[215]	uint16_t	2113	
adcBuffer[216]	uint16_t	2295	
adcBuffer[217]	uint16_t	2456	
adcBuffer[218]	uint16_t	2619	
adcBuffer[219]	uint16_t	2796	
adcBuffer[220]	uint16_t	2922	
adcBuffer[221]	uint16_t	3075	
adcBuffer[222]	uint16_t	3183	
adcBuffer[223]	uint16_t	3280	
adcBuffer[224]	uint16_t	3368	
adcBuffer[225]	uint16_t	3422	
adcBuffer[226]	uint16_t	3484	
adcBuffer[227]	uint16_t	3482	
adcBuffer[228]	uint16_t	3484	
adcBuffer[229]	uint16_t	3456	
adcBuffer[230]	uint16_t	3395	
adcBuffer[231]	uint16_t	3327	
adcBuffer[232]	uint16_t	3244	
adcBuffer[233]	uint16_t	3166	
adcBuffer[234]	uint16_t	3015	
adcBuffer[235]	uint16_t	2890	
adcBuffer[236]	uint16_t	2747	
adcBuffer[237]	uint16_t	2576	
adcBuffer[238]	uint16_t	2404	
adcBuffer[239]	uint16_t	2231	
adcBuffer[240]	uint16_t	2053	
adcBuffer[241]	uint16_t	1900	
adcBuffer[242]	uint16_t	1703	
adcBuffer[243]	uint16_t	1527	
adcBuffer[244]	uint16_t	1384	
adcBuffer[245]	uint16_t	1241	
adcBuffer[246]	uint16_t	1104	
adcBuffer[247]	uint16_t	987	
adcBuffer[248]	uint16_t	878	
adcBuffer[249]	uint16_t	815	
adcBuffer[250]	uint16_t	732	
adcBuffer[251]	uint16_t	700	
adcBuffer[252]	uint16_t	666	
adcBuffer[253]	uint16_t	681	
adcBuffer[254]	uint16_t	717	
adcBuffer[255]	uint16_t	773	
